[
  {
    "id": "1",
    "title": "Візит представників Житомирської політехніки до Кіпрського інституту маркетингу",
    "date": "08.04.2024",
    "content_small": "Протягом 01-07 квітня 2024 року представники Житомирської політехніки, проректор з науково-педагогічної роботи та молодіжної політики Олена Денисюк, доцент кафедри туризму та готельно-ресторанної справи Валентина Любченко, здійснюють візит за програмою міжнародних академічних обмінів Еразмус+ до Кіпрського інституту маркетингу. Програма візиту передбачає два напрями роботи: знайомство з організацією освітнього процесу й позанавчальної діяльності Кампусу інституту у м. Лімасолі та участь у 16-му міжнародному бізнес-саміті «CIM SUMMIT 2024 – The Future Of Business: Adapting to a Changing Landscape» (м. Нікосія)...",
	"content_large": "Протягом 01-07 квітня 2024 року представники Житомирської політехніки, проректор з науково-педагогічної роботи та молодіжної політики Олена Денисюк, доцент кафедри туризму та готельно-ресторанної справи Валентина Любченко, здійснюють візит за програмою міжнародних академічних обмінів Еразмус+ до Кіпрського інституту маркетингу. Програма візиту передбачає два напрями роботи: знайомство з організацією освітнього процесу й позанавчальної діяльності Кампусу інституту у м. Лімасолі та участь у 16-му міжнародному бізнес-саміті «CIM SUMMIT 2024 – The Future Of Business: Adapting to a Changing Landscape» (м. Нікосія). У Лімасолі представники Житомирської політехніки зустрілися з академічним директором Кампусу, доктором Катериною Павлоу, проговорили особливості провадження освітнього процесу закладами вищої освіти Кіпру, здійснення акредитаційних процедур на Кіпрі та в Україні, перспективи подальшої співпраці. Також візит передбачав зустрічі зі студентами та академічною спільнотою інституту. А вже 06 квітня у м. Нікосія відбувся 16-й міжнародний бізнес-саміт «CIM SUMMIT 2024», основною метою якого було інформувати і надихати керівників бізнесу, керівний персонал та посадовців Кіпру. У заході взяли участь майже 300 учасників. За допомогою «CIM SUMMIT 2024» Кіпрський інститут маркетингу активно просуває бізнес-освіту та пропонує додаткові можливості для розвитку своїм партнерам і випускникам, яких було запрошено для участі. У відкритті «CIM SUMMIT 2024» взяв участь Міністр фінансів Кіпру Makis Keravnos та CEO Кіпрського інститут маркетингу Yangos Hadjiyannis. На самміті з доповідями-презентаціями виступили: 📍Casidhe Troyer, Assistant Professor of Strategy and Entrepreneurship, London Business School «Ви отримуєте те, за що платите: зростання індексних фондів і корпоративних досліджень й розробок». 📍Sue Dopson, professor of Organisational Behaviour, Saïd Business School, University of Oxford «Від Его до Еко: що потрібно лідерам, щоб стати кращими?». 📍Trudi Lang, Senior Fellow in Management Practice, Saïd Business School, University of Oxford «Як уникнути привидів і цінність широкого погляду на стратегію». 📍David Stillwell, Professor of Computational Social Science, Cambridge Judge Business School «Генеративний ШІ – це проривна технологія. Але хто буде зруйнований і яким чином?». Крім участі у роботі «CIM SUMMIT 2024», представники Житомирської політехніки зустрілися із засновником Кіпрського інституту маркетингу Theo Hadjiyannis та теперішнім керівником інституту Yangos Hadjiyannis. Також обговорили можливості подальшої співпраці із поважними спікерами «CIM SUMMIT 2024». Житомирська політехніка продовжує створювати можливості для науково-педагогічних працівників щодо збагачення їхнього професійного та особистісного розвитку через міжнародний обмін досвідом та знаннями!"
  },
  {
    "id": "2",
    "title": "Студенти Житомирської політехніки разом з школярами міського ліцею № 3 висадили 0,7 га лісу!",
    "date": "05.04.2024",
    "content_small": "Посадка лісу – це важливий етап у вирішенні проблеми знищення лісів і забруднення довкілля. Такий захід покликаний покращити екологічну ситуацію і сприяти збереженню біорізноманіття. З метою профорієнтації та підвищення усвідомлення, щодо важливості охорони природи 04 квітня 2024 року студенти факультету гірничої справи...",
	"content_large": "Посадка лісу – це важливий етап у вирішенні проблеми знищення лісів і забруднення довкілля. Такий захід покликаний покращити екологічну ситуацію і сприяти збереженню біорізноманіття. З метою профорієнтації та підвищення усвідомлення, щодо важливості охорони природи 04 квітня 2024 року студенти факультету гірничої справи, природокористування та будівництва під керівництвом заступника декана Мариною Куницькою та керівників центрів «ECOstep» та «ECOSVIT» кафедри екології та природоохоронних технології доцентом Кірейцевою Ганною та асистентом кафедри Світланою Хоменко з школярями міського ліцею № 3 м. Житомира гуртом висадили 0,7 га. лісу. Це дало можливість відчути себе частиною екосистеми та відчути власну відповідальність за довкілля. Це чудова ініціатива студентів і школярів! Дякуємо ректору Державного університету «Житомирська політехніка» Віктору Євдокимову за наданий транспорт та підтримку у проведенні заходу! Дякуємо головному лісничому дочірнього підприємства ДП «Пулинський лісгосп АПК» Роману Ярошенку за організацію!"
  },
  {
    "id": "3",
    "title": "Зустріч з представником компанії GlobalLogic Україна",
    "date": "04.04.2024",
    "content_small": "03 квітня 2024 року у Житомирській політехніці відбулась зустріч студентів освітніх програм «Комп’ютерна графіка та розробка ігор», «Інформаційні системи та технології», «Кібербезпека», «Комп’ютерна інженерія» та «Інженерія програмного забезпечення» з представником ІТ-компанії «GlobalLogic Україна» Senior Solution Architect-ом Василем Голубєнко. Тема зустрічі: «Навчальні можливості та кар’єра в ІТ»...",
	"content_large": "03 квітня 2024 року у Житомирській політехніці відбулась зустріч студентів освітніх програм «Комп’ютерна графіка та розробка ігор», «Інформаційні системи та технології», «Кібербезпека», «Комп’ютерна інженерія» та «Інженерія програмного забезпечення» з представником ІТ-компанії «GlobalLogic Україна» Senior Solution Architect-ом Василем Голубєнко. Тема зустрічі: «Навчальні можливості та кар’єра в ІТ». Компанія «GlobalLogic Україна» входить у п’ятірку найбільших і найвідоміших IT-компаній України. Це компанія повного циклу розробки програмних продуктів. Поєднуючи творців і ринки, вона співпрацює з підприємствами й організаціями, що представляють усі великі галузі економіки. Василь Голубєнко розповів про основні напрями роботи компанії, проєкти та технології; яким чином можна приєднатися до компанії студентам, про ріст і розвиток працівників тощо. Серед іншого, було зазначено про можливість складання індивідуального плану розвитку для працівників, які створюють на основі їхніх сильних сторін і можливостей компанії, аби кожен працівник міг відчути себе максимально потрібним, розповів як пет-проєкти можуть стати чудовим способом, щоб продемонструвати свої скіли під час пошуку першої роботи. Під час зустрічі здобувачі були активними та відзначили очікування щодо подальших зустрічей. Наприкінці зустрічі студенти мали змогу поставити запитання, які їх цікавили. Проведення подібних зустрічей з ІТ-компаніями України – це можливість для майбутніх спеціалістів дізнатися про реальні вимоги роботодавців компаній до своїх робітників."
  },
  {
	  "id": "4",
	  "title": "Екологічний форум «Інноваційні рішення в управлінні відходами громад» на базі Житомирської політехніки",
	  "date": "03.04.2024",
	  "content_small": "3 квітня 2024 року в Житомирі на базі Державного університету «Житомирська політехніка» пройшов екологічний форум «Інноваційні рішення в управлінні відходами громад». Захід об’єднав представників влади, голів територіальних громад, науковців, екологів та громадських активістів для обговорення актуальних проблем та інноваційних підходів у сфері поводження з відходами...",
	  "content_large": "3 квітня 2024 року в Житомирі на базі Державного університету «Житомирська політехніка» пройшов екологічний форум «Інноваційні рішення в управлінні відходами громад». Захід об’єднав представників влади, голів територіальних громад, науковців, екологів та громадських активістів для обговорення актуальних проблем та інноваційних підходів у сфері поводження з відходами. Форум відкрила перший проректор Житомирської політехніки Оксана Олійник. Також із вітальними словами виступили почесні гості, серед яких заступник голови Житомирської ОВА Віктор Градівський, начальник Державної екологічної інспекції Поліського округу Євгеній Медведовський, начальник Житомирської районної військової адміністрації Юрій Тарасюк та інші. Під час форуму виступили спікери з доповідями на актуальні теми: Засновниця ГО «Україна без сміття» Євгенія Аратовська представила своє бачення шляхів вирішення проблеми відходів та ролі громадськості у цьому процесі."
  },
  {
	  "id": "5",
	  "title": "Лекція від адвоката Єгора Горлова для студентів Житомирської політехніки",
	  "date": "03.04.2024",
	  "content_small": "Теорія держави і права є не лише фундаментальною юридичною наукою, а і гарною теоретичною базою для майбутньої професійної діяльності. В цьому переконалися студенти першого курсу спеціальності 081 «Право», послухавши лекцію адвоката Єгора Горлова на тему «Правовідносини»...",
	  "content_large": "Теорія держави і права є не лише фундаментальною юридичною наукою, а і гарною теоретичною базою для майбутньої професійної діяльності. В цьому переконалися студенти першого курсу спеціальності 081 «Право», послухавши лекцію адвоката Єгора Горлова на тему «Правовідносини». Лекція була цікавою для майбутніх юристів. Відомий адвокат презентував тему на прикладах успішно виграних в суді справ, відповів на чисельні запитання та мотивував першокурсників до здобуття глибоких теоретичних знань. Після заняття Єгор Горлов зустрівся із НПП кафедри права та правоохоронної діяльності та обмінялися думками щодо проєктів ОПП за спеціальністю 081 “Право” бакалаврського та магістерського рівнів на 2024-2025 н.р."
  },
  {
	  "id": "6",
	  "title": "Привітання з днем народження факультету інформаційно-комп’ютерних технологій від ІТ-компанії Sana Commerce!",
	  "date": "01.04.2024",
	  "content_small": "1 квітня представники міжнародної ІТ-компанії Sana Commerce завітали до Державного університету “Житомирська політехніка”, щоб привітати викладачів та студентів з Днем факультету інформаційно-комп’ютерних технологій...",
	  "content_large": "1 квітня представники міжнародної ІТ-компанії Sana Commerce завітали до Державного університету “Житомирська політехніка”, щоб привітати викладачів та студентів з Днем факультету інформаційно-комп’ютерних технологій! Формат заходу дозволяв усім охочим з факультету інформаційно-комп’ютерних технологій взяти участь у бліц-вікторині на ІТ тематику, скласти головоломки, пройти квіз та дізнатись більше про компанію Sana Commerce. І звісно, не обійшлося без подарунків – гарячі напої у кав’ярні, брендовані аксесуари та корисні гаджети. Представники Sana Commerce зауважили, що вони цінують плідну та тривалу співпрацю з факультетом інформаційно-комп’ютерних технологій! Адже багато вмотивованих студентів будують свою успішну кар’єру саме у цій компанії. Також Sana Commerce вірить, що в майбутньому така співпраця продовжиться і ми разом надалі розвиватимемо ІТ галузь у нашому регіоні."
  },
  {
	  "id": "7",
	  "title": "Підвищення кваліфікації у Вищій школі публічного управління",
	  "date": "29.03.2024",
	  "content_small": "Викладачки факультету національної безпеки, права та міжнародних відносин Оксана Литвинчук та Оксана Лукашук долучилися до проєкту «Запобігання і протидія гендерно зумовленому, зокрема, домашньому насильству», ініційованому Вищою школою публічного управління спільно з Національним агентством України з питань державної служби в межах співпраці з Фондом ООН у галузі народонаселення в Україні (UNFPA)...",
	  "content_large": "Викладачки факультету національної безпеки, права та міжнародних відносин Оксана Литвинчук та Оксана Лукашук долучилися до проєкту «Запобігання і протидія гендерно зумовленому, зокрема, домашньому насильству», ініційованому Вищою школою публічного управління спільно з Національним агентством України з питань державної служби в межах співпраці з Фондом ООН у галузі народонаселення в Україні (UNFPA). Учасники проєкту мали нагоду підвищити рівень обізнаності щодо виявлення, запобігання та протидії випадкам гендерно зумовленого насильства. Говорили про форми гендерно зумовленого та види домашнього насильства. Працювали над європейським та національним законодавством щодо запобігання та протидії насильству за ознакою статі. Ґрунтовно проаналізували суб’єкти, що здійснюють заходи у сфері запобігання насильства за ознакою статі, а також розглянули особливості міжвідомчої взаємодії та забезпечення координації діяльності різних суб’єктів на центральному, регіональному і місцевому рівнях. Протягом навчання співпрацювали з досвідченими фахівчинями у сфері гендерної тематики: з керівницею Національного тренінгового центру з питань попередження та протидії гендерно зумовленому насильству Наталією Щербак, із сертифікованою тренеркою та гендерною експерткою Світланою Євченко, а також із гендерною експерткою та сертифікованою тренеркою у сфері освіти дорослих Наталією Тарасенко. За результатами навчання директорка Вищої школи публічного управління Юлія Лихач урочисто вручила учасникам проєкту сертифікати."
  },
  {
	  "id": "8",
	  "title": "Урочисте відкриття Чемпіонату міста Житомира з волейболу серед чоловічих команд 2024",
	  "date": "28.03.2024",
	  "content_small": "25 березня 2024 року у спортивному залі Державного університету “Житомирська політехніка” відбулося відкриття Чемпіонату міста Житомира з волейболу серед чоловічих команд 2024. У змаганнях беруть участь 14 волейбольних команд...",
	  "content_large": "25 березня 2024 року у спортивному залі Державного університету “Житомирська політехніка” відбулося відкриття Чемпіонату міста Житомира з волейболу серед чоловічих команд 2024. У змаганнях беруть участь 14 волейбольних команд. До спортивної зали завітали гості, вболівальники та головні дійові особи цього дня – волейболісти Житомирської політехніки та Агротехколеджу. З вітальним словом до учасників звернулися проректор з науково-педагогічної роботи та молодіжної політики Державного університету «Житомирська політехніка», кандидат економічних наук, доцент Денисюк Олена Григорівна, директор Житомирського агротехнічного фахового коледжу, доктор економічних наук,  Народний депутат України шостого скликання Тимошенко Микола Михайлович. В залі також був присутній майстер спорту з волейболу, директор ТОВ «ЖИТОМИРНАСІННЯ» – Чигир Михайло Андрійович. А далі на волейбольному майданчику відбулась цікава та емоційна зустріч між Житомирською політехнікою та Агротехколеджем. Переможцем стали волейболісти ВК “Житомирська політехніка” 2 : 0 (25:16, 25:20). Вітаємо! Бажаємо всім учасникам Чемпіонату з волейболу міста Житомира цікавих змагань. Знаємо, що вони пройдуть в напруженій і безкомпромісній боротьбі та будуть по-справжньому захопливими. Бажаємо всім спортсменам міцного здоров’я, великої удачі, чесної гри та наполегливості! Нехай переможе найсильніший!"
  },
  {
	  "id": "9",
	  "title": "Підвищення кваліфікації «Запобігання і протидія гендерно зумовленому, зокрема домашньому, насильству» у Житомирській політехніці",
	  "date": "26.03.2024",
	  "content_small": "Вищою школою публічного управління спільно з Національним агентством України з питань державної служби у межах співпраці з Фондом ООН у галузі народонаселення в Україні (UNFPA) протягом 21-22 березня на базі Державного університету «Житомирська політехніка» проведено навчання за загальною типовою програмою підвищення кваліфікації «Запобігання і протидія гендерно зумовленому, зокрема домашньому, насильству»...",
	  "content_large": "Вищою школою публічного управління спільно з Національним агентством України з питань державної служби у межах співпраці з Фондом ООН у галузі народонаселення в Україні (UNFPA) протягом 21-22 березня на базі Державного університету «Житомирська політехніка» проведено навчання за загальною типовою програмою підвищення кваліфікації «Запобігання і протидія гендерно зумовленому, зокрема домашньому, насильству». Освітній проєкт має на меті підвищити рівень обізнаності державних службовців, посадових осіб місцевого самоврядування та фахівців щодо запобігання, виявлення, реагування і протидії домашньому насильству та формування умінь із застосування комплексного інтегрованого підходу щодо належного реагування на випадки домашнього насильства. З вітальним словом до учасників звернулися Директорка Вищої школи публічного управління Юлія Лихач, керівниця Національного тренінгового центру з питань попередження та протидії гендерно зумовленому насильству Наталія Щербак, проректор Житомирської політехніки Олена Денисюк. До університету завітали майже 30 представників органів державного, місцевого самоврядування Житомирщини з числа уповноважених осіб, які займаються питаннями запобігання та протидії домашньому насильству. У тренінгу також взяли участь викладачі Житомирської політехніки. За результатами підсумкового тестування учасники отримали відповідні сертифікати (обсяг навчальної програми – 0,6 кредитів ЄКТС). Щиро дякуємо нашим партнерам за можливість реалізації актуального заходу в університеті! Впевнені, що знання та навички, отримані учасниками будуть корисні в роботі, а їх діяльність буде спрямована на допомогу людям! Разом ми змінюємо світ на краще і допомагаємо тим, хто цього потребує!"
  },
  {
	  "id": "10",
	  "title": "Екскурсія студентів до Житомирського районного управління поліції ГУНП в Житомирській області",
	  "date": "19.03.2024",
	  "content_small": "15 березня 2024 року здобувачі вищої освіти спеціальності 262 «Правоохоронна діяльність» відвідали з екскурсією Житомирське районне управління поліції ГУНП в Житомирській області...",
	  "content_large": "15 березня 2024 року здобувачі вищої освіти спеціальності 262 «Правоохоронна діяльність» відвідали з екскурсією Житомирське районне управління поліції ГУНП в Житомирській області. Під час 2-годинної екскурсії студенти мали нагоду ознайомитися з: діяльністю та структурою Житомирського районного управління поліції ГУНП в Житомирській області; процедурою проведення конкурсного відбору на службу в поліцію; системою мотивації поліцейських, що включає соціальне забезпечення згідно діючого законодавства, пільговий лізинг на житло, компенсацію оренди за винайм житла, перспективу кар’єрного росту тощо; порядком розгляду звернень та організації проведення особистого прийому громадян в органах та підрозділах Національної поліції України; -особливістю функціонування системи Custody Records у Житомирському районному управлінні поліції ГУНП в Житомирській області, що передбачає електронну фіксацію дій, що відбуваються із затриманими особами; особливостями перевірки особи на стан сп’яніння із використанням приладу Драгер (бажаючі змогли пройти перевірку). Крім того студенти мали можливість відвідали ізолятор тимчасового тримання (ІТТ), дізналися про права й обов’язки осіб, які тримаються та правила внутрішнього розпорядку в ізоляторах тимчасового тримання, отримали вичерпну інформацію щодо обшуку затриманих і взятих під варту осіб та огляду їх речей. Під час екскурсії уповноважені особи Житомирського районного управління поліції ГУНП в Житомирській області демонстрували відеоролики з підтвердженням професійності їх діяльності та злагодженості роботи."
  }
]
